{
  "workflowJsonSchema": {
    "type": "object",
    "properties": {
      "data": {
        "type": "object",
        "properties": {
          "id": {
            "type": "string"
          },
          "name": {
            "type": "string"
          },
          "description": {
            "type": "string"
          },
          "createdAt": {
            "type": "string"
          },
          "updatedAt": {
            "type": "string"
          },
          "createdBy": {
            "type": "object",
            "properties": {
              "id": {
                "type": "string"
              },
              "type": {
                "type": "string"
              }
            },
            "required": [
              "id",
              "type"
            ]
          },
          "updatedBy": {
            "type": "object",
            "properties": {
              "id": {
                "type": "string"
              },
              "type": {
                "type": "string"
              }
            },
            "required": [
              "id",
              "type"
            ]
          },
          "totalProcessingTime": {
            "type": "integer"
          }
        },
        "required": [
          "id",
          "name",
          "description",
          "createdAt",
          "updatedAt",
          "createdBy",
          "updatedBy",
          "totalProcessingTime"
        ]
      },
      "error": {
        "type": "null"
      }
    },
    "required": [
      "data",
      "error"
    ]
  },
  "tasksJsonSchema": {
    "type": "object",
    "properties": {
      "data": {
        "type": "array",
        "items": [
          {
            "type": "object",
            "properties": {
              "id": {
                "type": "string"
              },
              "displayId": {
                "type": "string"
              },
              "createdAt": {
                "type": "string"
              },
              "updatedAt": {
                "type": "string"
              },
              "createdBy": {
                "type": "object",
                "properties": {
                  "id": {
                    "type": "string"
                  },
                  "type": {
                    "type": "string"
                  }
                },
                "required": [
                  "id",
                  "type"
                ]
              },
              "updatedBy": {
                "type": "object",
                "properties": {
                  "id": {
                    "type": "string"
                  },
                  "type": {
                    "type": "string"
                  }
                },
                "required": [
                  "id",
                  "type"
                ]
              },
              "name": {
                "type": "string"
              },
              "parentsIds": {
                "type": "array",
                "items": {}
              },
              "blockName": {
                "type": "string"
              },
              "blockVersionTag": {
                "type": "string"
              },
              "block": {
                "type": "object"
              },
              "environment": {
                "type": "null"
              }
            },
            "required": [
              "id",
              "displayId",
              "createdAt",
              "updatedAt",
              "createdBy",
              "updatedBy",
              "name",
              "parentsIds",
              "blockName",
              "blockVersionTag",
              "block",
              "environment"
            ]
          },
          {
            "type": "object",
            "properties": {
              "id": {
                "type": "string"
              },
              "displayId": {
                "type": "string"
              },
              "createdAt": {
                "type": "string"
              },
              "updatedAt": {
                "type": "string"
              },
              "createdBy": {
                "type": "object",
                "properties": {
                  "id": {
                    "type": "string"
                  },
                  "type": {
                    "type": "string"
                  }
                },
                "required": [
                  "id",
                  "type"
                ]
              },
              "updatedBy": {
                "type": "object",
                "properties": {
                  "id": {
                    "type": "string"
                  },
                  "type": {
                    "type": "string"
                  }
                },
                "required": [
                  "id",
                  "type"
                ]
              },
              "name": {
                "type": "string"
              },
              "parentsIds": {
                "type": "array",
                "items": {}
              },
              "blockName": {
                "type": "string"
              },
              "blockVersionTag": {
                "type": "string"
              },
              "block": {
                "type": "object"
              },
              "environment": {
                "type": "null"
              }
            },
            "required": [
              "id",
              "displayId",
              "createdAt",
              "updatedAt",
              "createdBy",
              "updatedBy",
              "name",
              "parentsIds",
              "blockName",
              "blockVersionTag",
              "block",
              "environment"
            ]
          }
        ]
      },
      "error": {
        "type": "null"
      }
    },
    "required": [
      "data",
      "error"
    ]
  },
  "jobJsonSchema": {
    "type": "object",
    "properties": {
      "data": {
        "type": "object",
        "properties": {
          "id": {
            "type": "string"
          },
          "displayId": {
            "type": "string"
          },
          "createdAt": {
            "type": "string"
          },
          "updatedAt": {
            "type": "string"
          },
          "createdBy": {
            "type": "object",
            "properties": {
              "id": {
                "type": "string"
              },
              "type": {
                "type": "string"
              }
            },
            "required": [
              "id",
              "type"
            ]
          },
          "updatedBy": {
            "type": "object",
            "properties": {
              "id": {
                "type": "string"
              },
              "type": {
                "type": "string"
              }
            },
            "required": [
              "id",
              "type"
            ]
          },
          "status": {
            "type": "string"
          },
          "name": {
            "type": "null"
          },
          "startedAt": {
            "type": "null"
          },
          "finishedAt": {
            "type": "null"
          },
          "inputs": {
            "type": "object",
            "properties": {
              "nasa-modis:1": {
                "type": "object"
              },
              "sharpening:1": {
                "type": "object"
              }
            },
            "required": [
              "nasa-modis:1",
              "sharpening:1"
            ]
          },
          "mode": {
            "type": "string"
          },
          "workflowId": {
            "type": "string"
          },
          "workflowName": {
            "type": "string"
          }
        },
        "required": [
          "id",
          "displayId",
          "createdAt",
          "updatedAt",
          "createdBy",
          "updatedBy",
          "status",
          "name",
          "startedAt",
          "finishedAt",
          "inputs",
          "mode",
          "workflowId",
          "workflowName"
        ]
      },
      "error": {
        "type": "null"
      }
    },
    "required": [
      "data",
      "error"
    ]
  },
  "jobPENDINGStatusJsonSchema": {
    "type": "object",
    "properties": {
      "data": {
        "type": "object",
        "properties": {
          "id": {
            "type": "string"
          },
          "displayId": {
            "type": "string"
          },
          "createdAt": {
            "type": "string"
          },
          "updatedAt": {
            "type": "string"
          },
          "createdBy": {
            "type": "object",
            "properties": {
              "id": {
                "type": "string"
              },
              "type": {
                "type": "string"
              }
            },
            "required": [
              "id",
              "type"
            ]
          },
          "updatedBy": {
            "type": "object",
            "properties": {
              "id": {
                "type": "string"
              },
              "type": {
                "type": "string"
              }
            },
            "required": [
              "id",
              "type"
            ]
          },
          "status": {
            "type": "string"
          },
          "name": {
            "type": "null"
          },
          "startedAt": {
            "type": "null"
          },
          "finishedAt": {
            "type": "null"
          },
          "inputs": {
            "type": "object",
            "properties": {
              "nasa-modis:1": {
                "type": "object"
              },
              "sharpening:1": {
                "type": "object"
              }
            },
            "required": [
              "nasa-modis:1",
              "sharpening:1"
            ]
          },
          "mode": {
            "type": "string"
          },
          "workflowId": {
            "type": "string"
          },
          "workflowName": {
            "type": "string"
          }
        },
        "required": [
          "id",
          "displayId",
          "createdAt",
          "updatedAt",
          "createdBy",
          "updatedBy",
          "status",
          "name",
          "startedAt",
          "finishedAt",
          "inputs",
          "mode",
          "workflowId",
          "workflowName"
        ]
      },
      "error": {
        "type": "null"
      }
    },
    "required": [
      "data",
      "error"
    ]
  },
  "jobRUNNINGStatusJsonSchema": {
    "type": "object",
    "properties": {
      "data": {
        "type": "object",
        "properties": {
          "id": {
            "type": "string"
          },
          "displayId": {
            "type": "string"
          },
          "createdAt": {
            "type": "string"
          },
          "updatedAt": {
            "type": "string"
          },
          "createdBy": {
            "type": "object",
            "properties": {
              "id": {
                "type": "string"
              },
              "type": {
                "type": "string"
              }
            },
            "required": [
              "id",
              "type"
            ]
          },
          "updatedBy": {
            "type": "object",
            "properties": {
              "id": {
                "type": "string"
              },
              "type": {
                "type": "string"
              }
            },
            "required": [
              "id",
              "type"
            ]
          },
          "status": {
            "type": "string"
          },
          "name": {
            "type": "null"
          },
          "startedAt": {
            "type": "string"
          },
          "finishedAt": {
            "type": "null"
          },
          "inputs": {
            "type": "object",
            "properties": {
              "nasa-modis:1": {
                "type": "object"
              },
              "sharpening:1": {
                "type": "object"
              }
            },
            "required": [
              "nasa-modis:1",
              "sharpening:1"
            ]
          },
          "mode": {
            "type": "string"
          },
          "workflowId": {
            "type": "string"
          },
          "workflowName": {
            "type": "string"
          }
        },
        "required": [
          "id",
          "displayId",
          "createdAt",
          "updatedAt",
          "createdBy",
          "updatedBy",
          "status",
          "name",
          "startedAt",
          "finishedAt",
          "inputs",
          "mode",
          "workflowId",
          "workflowName"
        ]
      },
      "error": {
        "type": "null"
      }
    },
    "required": [
      "data",
      "error"
    ]
  },
  "jobSUCCEEDEDJsonSchema": {
    "type": "object",
    "properties": {
      "data": {
        "type": "object",
        "properties": {
          "id": {
            "type": "string"
          },
          "displayId": {
            "type": "string"
          },
          "createdAt": {
            "type": "string"
          },
          "updatedAt": {
            "type": "string"
          },
          "createdBy": {
            "type": "object",
            "properties": {
              "id": {
                "type": "string"
              },
              "type": {
                "type": "string"
              }
            },
            "required": [
              "id",
              "type"
            ]
          },
          "updatedBy": {
            "type": "object",
            "properties": {
              "id": {
                "type": "string"
              },
              "type": {
                "type": "string"
              }
            },
            "required": [
              "id",
              "type"
            ]
          },
          "status": {
            "type": "string"
          },
          "name": {
            "type": "null"
          },
          "startedAt": {
            "type": "string"
          },
          "finishedAt": {
            "type": "string"
          },
          "inputs": {
            "type": "object",
            "properties": {
              "nasa-modis:1": {
                "type": "object"
              },
              "sharpening:1": {
                "type": "object"
              }
            },
            "required": [
              "nasa-modis:1",
              "sharpening:1"
            ]
          },
          "mode": {
            "type": "string"
          },
          "workflowId": {
            "type": "string"
          },
          "workflowName": {
            "type": "string"
          }
        },
        "required": [
          "id",
          "displayId",
          "createdAt",
          "updatedAt",
          "createdBy",
          "updatedBy",
          "status",
          "name",
          "startedAt",
          "finishedAt",
          "inputs",
          "mode",
          "workflowId",
          "workflowName"
        ]
      },
      "error": {
        "type": "null"
      }
    },
    "required": [
      "data",
      "error"
    ]
  },
  "jobNOT_STARTEDJsonSchema": {
    "$schema": "http://json-schema.org/draft-04/schema#",
    "type": "object",
    "properties": {
      "data": {
        "type": "object",
        "properties": {
          "id": {
            "type": "string"
          },
          "displayId": {
            "type": "string"
          },
          "createdAt": {
            "type": "string"
          },
          "updatedAt": {
            "type": "string"
          },
          "createdBy": {
            "type": "object",
            "properties": {
              "id": {
                "type": "string"
              },
              "type": {
                "type": "string"
              }
            },
            "required": [
              "id",
              "type"
            ]
          },
          "updatedBy": {
            "type": "object",
            "properties": {
              "id": {
                "type": "string"
              },
              "type": {
                "type": "string"
              }
            },
            "required": [
              "id",
              "type"
            ]
          },
          "status": {
            "type": "string"
          },
          "name": {
            "type": "null"
          },
          "startedAt": {
            "type": "null"
          },
          "finishedAt": {
            "type": "null"
          },
          "inputs": {
            "type": "object",
            "properties": {
              "nasa-modis:1": {
                "type": "array",
                "items": [
                  {
                    "type": "object"
                  }
                ]
              },
              "sharpening:1": {
                "type": "array",
                "items": [
                  {
                    "type": "object"
                  }
                ]
              }
            },
            "required": [
              "nasa-modis:1",
              "sharpening:1"
            ]
          },
          "mode": {
            "type": "string"
          },
          "workflowId": {
            "type": "string"
          },
          "workflowName": {
            "type": "string"
          }
        },
        "required": [
          "id",
          "displayId",
          "createdAt",
          "updatedAt",
          "createdBy",
          "updatedBy",
          "status",
          "name",
          "startedAt",
          "finishedAt",
          "inputs",
          "mode",
          "workflowId",
          "workflowName"
        ]
      },
      "error": {
        "type": "null"
      }
    },
    "required": [
      "data",
      "error"
    ]
  }
}